%YAML 1.1
%TAG !u! tag:unity3d.com,2011:
--- !u!1001 &7655961303751007117
PrefabInstance:
  m_ObjectHideFlags: 0
  serializedVersion: 2
  m_Modification:
    m_TransformParent: {fileID: 0}
    m_Modifications:
    - target: {fileID: 1973797488871700, guid: 48e06088b7e195f40898a828bd389ec3, type: 3}
      propertyPath: m_Name
      value: fireball-red-tail-big Variant
      objectReference: {fileID: 0}
    - target: {fileID: 1973797488871700, guid: 48e06088b7e195f40898a828bd389ec3, type: 3}
      propertyPath: m_TagString
      value: Enemy
      objectReference: {fileID: 0}
    - target: {fileID: 4469022170149554, guid: 48e06088b7e195f40898a828bd389ec3, type: 3}
      propertyPath: m_RootOrder
      value: 0
      objectReference: {fileID: 0}
    - target: {fileID: 4469022170149554, guid: 48e06088b7e195f40898a828bd389ec3, type: 3}
      propertyPath: m_LocalPosition.x
      value: -12.018763
      objectReference: {fileID: 0}
    - target: {fileID: 4469022170149554, guid: 48e06088b7e195f40898a828bd389ec3, type: 3}
      propertyPath: m_LocalPosition.y
      value: -6.2401857
      objectReference: {fileID: 0}
    - target: {fileID: 4469022170149554, guid: 48e06088b7e195f40898a828bd389ec3, type: 3}
      propertyPath: m_LocalPosition.z
      value: 0
      objectReference: {fileID: 0}
    - target: {fileID: 4469022170149554, guid: 48e06088b7e195f40898a828bd389ec3, type: 3}
      propertyPath: m_LocalRotation.w
      value: 1
      objectReference: {fileID: 0}
    - target: {fileID: 4469022170149554, guid: 48e06088b7e195f40898a828bd389ec3, type: 3}
      propertyPath: m_LocalRotation.x
      value: 0
      objectReference: {fileID: 0}
    - target: {fileID: 4469022170149554, guid: 48e06088b7e195f40898a828bd389ec3, type: 3}
      propertyPath: m_LocalRotation.y
      value: 0
      objectReference: {fileID: 0}
    - target: {fileID: 4469022170149554, guid: 48e06088b7e195f40898a828bd389ec3, type: 3}
      propertyPath: m_LocalRotation.z
      value: 0
      objectReference: {fileID: 0}
    - target: {fileID: 4469022170149554, guid: 48e06088b7e195f40898a828bd389ec3, type: 3}
      propertyPath: m_LocalEulerAnglesHint.x
      value: 0
      objectReference: {fileID: 0}
    - target: {fileID: 4469022170149554, guid: 48e06088b7e195f40898a828bd389ec3, type: 3}
      propertyPath: m_LocalEulerAnglesHint.y
      value: 0
      objectReference: {fileID: 0}
    - target: {fileID: 4469022170149554, guid: 48e06088b7e195f40898a828bd389ec3, type: 3}
      propertyPath: m_LocalEulerAnglesHint.z
      value: 0
      objectReference: {fileID: 0}
    m_RemovedComponents: []
  m_SourcePrefab: {fileID: 100100000, guid: 48e06088b7e195f40898a828bd389ec3, type: 3}
--- !u!1 &7653994107963560601 stripped
GameObject:
  m_CorrespondingSourceObject: {fileID: 1973797488871700, guid: 48e06088b7e195f40898a828bd389ec3,
    type: 3}
  m_PrefabInstance: {fileID: 7655961303751007117}
  m_PrefabAsset: {fileID: 0}
--- !u!58 &-6655403377714666247
CircleCollider2D:
  m_ObjectHideFlags: 0
  m_CorrespondingSourceObject: {fileID: 0}
  m_PrefabInstance: {fileID: 0}
  m_PrefabAsset: {fileID: 0}
  m_GameObject: {fileID: 7653994107963560601}
  m_Enabled: 1
  m_Density: 1
  m_Material: {fileID: 0}
  m_IsTrigger: 1
  m_UsedByEffector: 0
  m_UsedByComposite: 0
  m_Offset: {x: -0.0029103868, y: 0.08381553}
  serializedVersion: 2
  m_Radius: 0.135
--- !u!114 &3541759260424240439
MonoBehaviour:
  m_ObjectHideFlags: 0
  m_CorrespondingSourceObject: {fileID: 0}
  m_PrefabInstance: {fileID: 0}
  m_PrefabAsset: {fileID: 0}
  m_GameObject: {fileID: 7653994107963560601}
  m_Enabled: 1
  m_EditorHideFlags: 0
  m_Script: {fileID: 11500000, guid: b62bbe394672aff4eacdd1eb01621133, type: 3}
  m_Name: 
  m_EditorClassIdentifier: 
