%YAML 1.1
%TAG !u! tag:unity3d.com,2011:
--- !u!1001 &2712267391792574974
PrefabInstance:
  m_ObjectHideFlags: 0
  serializedVersion: 2
  m_Modification:
    m_TransformParent: {fileID: 0}
    m_Modifications:
    - target: {fileID: 1939245619601230, guid: d2f2f92c494bd1c41970791d8041c000, type: 3}
      propertyPath: m_Name
      value: fireball-blue-tail-big Variant
      objectReference: {fileID: 0}
    - target: {fileID: 1939245619601230, guid: d2f2f92c494bd1c41970791d8041c000, type: 3}
      propertyPath: m_TagString
      value: AllyBullet
      objectReference: {fileID: 0}
    - target: {fileID: 4586067091643388, guid: d2f2f92c494bd1c41970791d8041c000, type: 3}
      propertyPath: m_RootOrder
      value: 0
      objectReference: {fileID: 0}
    - target: {fileID: 4586067091643388, guid: d2f2f92c494bd1c41970791d8041c000, type: 3}
      propertyPath: m_LocalPosition.x
      value: -13.921114
      objectReference: {fileID: 0}
    - target: {fileID: 4586067091643388, guid: d2f2f92c494bd1c41970791d8041c000, type: 3}
      propertyPath: m_LocalPosition.y
      value: -5.864722
      objectReference: {fileID: 0}
    - target: {fileID: 4586067091643388, guid: d2f2f92c494bd1c41970791d8041c000, type: 3}
      propertyPath: m_LocalPosition.z
      value: 0
      objectReference: {fileID: 0}
    - target: {fileID: 4586067091643388, guid: d2f2f92c494bd1c41970791d8041c000, type: 3}
      propertyPath: m_LocalRotation.w
      value: 1
      objectReference: {fileID: 0}
    - target: {fileID: 4586067091643388, guid: d2f2f92c494bd1c41970791d8041c000, type: 3}
      propertyPath: m_LocalRotation.x
      value: 0
      objectReference: {fileID: 0}
    - target: {fileID: 4586067091643388, guid: d2f2f92c494bd1c41970791d8041c000, type: 3}
      propertyPath: m_LocalRotation.y
      value: 0
      objectReference: {fileID: 0}
    - target: {fileID: 4586067091643388, guid: d2f2f92c494bd1c41970791d8041c000, type: 3}
      propertyPath: m_LocalRotation.z
      value: 0
      objectReference: {fileID: 0}
    - target: {fileID: 4586067091643388, guid: d2f2f92c494bd1c41970791d8041c000, type: 3}
      propertyPath: m_LocalEulerAnglesHint.x
      value: 0
      objectReference: {fileID: 0}
    - target: {fileID: 4586067091643388, guid: d2f2f92c494bd1c41970791d8041c000, type: 3}
      propertyPath: m_LocalEulerAnglesHint.y
      value: 0
      objectReference: {fileID: 0}
    - target: {fileID: 4586067091643388, guid: d2f2f92c494bd1c41970791d8041c000, type: 3}
      propertyPath: m_LocalEulerAnglesHint.z
      value: 0
      objectReference: {fileID: 0}
    m_RemovedComponents: []
  m_SourcePrefab: {fileID: 100100000, guid: d2f2f92c494bd1c41970791d8041c000, type: 3}
--- !u!1 &2712586897668058800 stripped
GameObject:
  m_CorrespondingSourceObject: {fileID: 1939245619601230, guid: d2f2f92c494bd1c41970791d8041c000,
    type: 3}
  m_PrefabInstance: {fileID: 2712267391792574974}
  m_PrefabAsset: {fileID: 0}
--- !u!70 &3058535035322753802
CapsuleCollider2D:
  m_ObjectHideFlags: 0
  m_CorrespondingSourceObject: {fileID: 0}
  m_PrefabInstance: {fileID: 0}
  m_PrefabAsset: {fileID: 0}
  m_GameObject: {fileID: 2712586897668058800}
  m_Enabled: 1
  m_Density: 1
  m_Material: {fileID: 0}
  m_IsTrigger: 1
  m_UsedByEffector: 0
  m_UsedByComposite: 0
  m_Offset: {x: -0.0029104613, y: 0.08004032}
  m_Size: {x: 0.09, y: 0.27}
  m_Direction: 0
--- !u!114 &1420394663035551248
MonoBehaviour:
  m_ObjectHideFlags: 0
  m_CorrespondingSourceObject: {fileID: 0}
  m_PrefabInstance: {fileID: 0}
  m_PrefabAsset: {fileID: 0}
  m_GameObject: {fileID: 2712586897668058800}
  m_Enabled: 1
  m_EditorHideFlags: 0
  m_Script: {fileID: 11500000, guid: f60cdb90a5d99714b8f4bc473e93953a, type: 3}
  m_Name: 
  m_EditorClassIdentifier: 
